{
  "css/integrations.css": "css/integrations-fe80f0f1ff.css",
  "css/main.css": "css/main-fe2861db31.css",
  "js/analytics.js": "js/analytics-af2849dea6.js",
  "js/checkout-page.js": "js/checkout-page-118313abb3.js",
  "js/main.js": "js/main-e775d345ea.js",
  "js/polyfills/babel-polyfill.js": "js/polyfills/babel-polyfill-2a128b81ac.js",
  "js/polyfills/index-toolkit.js": "js/polyfills/index-toolkit-8b093a1ca8.js",
  "js/polyfills/index.js": "js/polyfills/index-a6fc1e1063.js",
  "js/polyfills/picturefill.js": "js/polyfills/picturefill-f350acdff4.js",
  "js/ref-page.js": "js/ref-page-bc0b10f44e.js",
  "js/vendor.js": "js/vendor-ff0f077b57.js",
  "js/vendor/jquery.js": "js/vendor/jquery-c9f5aeeca3.js"
}