<?xml version="1.0" encoding="utf-8"?>
<!-- Generator: Adobe Illustrator 22.1.0, SVG Export Plug-In . SVG Version: 6.00 Build 0)  -->
<svg version="1.1" id="Ebene_1" xmlns="http://www.w3.org/2000/svg" xmlns:xlink="http://www.w3.org/1999/xlink" x="0px" y="0px"
	 viewBox="0 0 540 15" style="enable-background:new 0 0 540 15;" xml:space="preserve">
<style type="text/css">
	.st0{fill:#2B364A;}
</style>
<path class="st0" d="M17,14c0,0-11-1-16-6c0-2,5-2,9-3c11-1,29-2,33-3c180.4-3.8,462.8-0.3,488.2,0c2.3-0.5,2.4,0.8,2.6,1.1
	c1.9,2.3,3.4,3.4,5.1,4.2c0.7,0.3,0.8,1.8,0.1,2.3c-5.3,3.7-10,4.5-10,4.5s-3,1-5,1C283,11,149,12,17,14z"/>
</svg>
