<!--Generator: Adobe Illustrator 17.0.0, SVG Export Plug-In . SVG Version: 6.00 Build 0)-->
<svg id="Layer_1" xmlns="http://www.w3.org/2000/svg" x="0px" y="0px" viewBox="0 0 32 32">
  <g stroke="#264D67" stroke-width="0.5" stroke-linecap="round" stroke-linejoin="round" stroke-miterlimit="10">
    <path fill="#E6F4FF" d="M8.116 22.156a1.812 1.812 0 0 1-1.812-1.812v-6.003a1.812 1.812 0 1 1 3.624 0v6.003a1.812 1.812 0 0 1-1.812 1.812z"/>
    <path fill="#79A1D5" d="M23.884 22.156a1.812 1.812 0 0 1-1.812-1.812V9.093a1.812 1.812 0 1 1 3.624 0v11.251a1.812 1.812 0 0 1-1.812 1.812z"/>
    <path fill="#B4CBEA" d="M16 22.156a1.812 1.812 0 0 1-1.812-1.812v-8.627a1.812 1.812 0 1 1 3.624 0v8.627A1.812 1.812 0 0 1 16 22.156z"/>
    <g fill="none">
      <path d="M3.938 24.719h17.625M23.063 24.719h5"/>
    </g>
  </g>
</svg>
